<svg width="17" height="18" viewBox="0 0 17 18" fill="none" xmlns="http://www.w3.org/2000/svg">
<path d="M15.479 7.39563C15.3998 6.69014 15.073 6.03557 14.5566 5.54834C14.0403 5.06111 13.3678 4.77279 12.6589 4.73462V4.52771C12.6594 3.93735 12.5433 3.35262 12.3169 2.80738C12.0905 2.26213 11.7586 1.76715 11.3401 1.35071C10.9233 0.93262 10.4277 0.60102 9.88232 0.375003C9.33693 0.148986 8.75248 0.0329925 8.16211 0.0336946C6.96967 0.0336935 5.82592 0.506996 4.98218 1.34961C4.13844 2.19223 3.6637 3.33528 3.66211 4.52771V4.7367C2.96236 4.78613 2.30196 5.07916 1.7959 5.56494C1.28983 6.05073 0.970082 6.69849 0.89209 7.39563L0.143066 14.2286C0.144508 14.6822 0.23523 15.131 0.410156 15.5494C0.585082 15.9679 0.840829 16.3479 1.1626 16.6675C1.48437 16.9871 1.86579 17.2402 2.2854 17.4124C2.70501 17.5845 3.15437 17.6722 3.60791 17.6707H12.7581C13.2116 17.6722 13.661 17.5845 14.0806 17.4124C14.5002 17.2402 14.8818 16.9871 15.2036 16.6675C15.5254 16.3479 15.7809 15.9679 15.9558 15.5494C16.1307 15.131 16.2215 14.6822 16.2229 14.2286L15.479 7.39563ZM4.98804 4.53467C4.98791 4.11777 5.0698 3.70491 5.22925 3.31971C5.3887 2.9345 5.62249 2.58452 5.91724 2.28968C6.21198 1.99484 6.56187 1.76089 6.94702 1.60132C7.33217 1.44175 7.74521 1.35962 8.16211 1.35962C8.57895 1.35928 8.99162 1.44136 9.37671 1.60096C9.76179 1.76055 10.1116 1.99457 10.406 2.28968C10.7013 2.58413 10.9356 2.93406 11.0952 3.31934C11.2548 3.70462 11.3365 4.11764 11.3359 4.53467V4.72766H4.98706L4.98804 4.53467ZM5.61401 9.20362C5.40184 9.20362 5.19837 9.11939 5.04834 8.96936C4.89831 8.81933 4.81396 8.61586 4.81396 8.40369C4.81396 8.19152 4.89831 7.98805 5.04834 7.83802C5.19837 7.68799 5.40184 7.60364 5.61401 7.60364C5.82619 7.60364 6.02966 7.68799 6.17969 7.83802C6.32972 7.98805 6.41406 8.19152 6.41406 8.40369C6.41406 8.61586 6.32972 8.81933 6.17969 8.96936C6.02966 9.11939 5.82619 9.20362 5.61401 9.20362ZM10.7671 9.20362C10.5549 9.20362 10.3514 9.11939 10.2014 8.96936C10.0514 8.81933 9.96704 8.61586 9.96704 8.40369C9.96704 8.19152 10.0514 7.98805 10.2014 7.83802C10.3514 7.68799 10.5549 7.60364 10.7671 7.60364C10.9793 7.60364 11.1827 7.68799 11.3328 7.83802C11.4828 7.98805 11.5669 8.19152 11.5669 8.40369C11.5669 8.61586 11.4828 8.81933 11.3328 8.96936C11.1827 9.11939 10.9793 9.20362 10.7671 9.20362Z" fill="#FE724C"/>
</svg>
